Geolife-Trajectories/010/Trajectory/20081006234930.plt, 1 in 50 samples retained
WGS 84
Altitude is in Feet
Reserved 3
0,2,255,My Track,0,0,2,8421376
0
39.847111,116.472481,0,174,39727.9927083333,2008-10-06,23:49:30
39.866378,116.444516,0,184,39727.9933449074,2008-10-06,23:50:25
39.870523,116.415378,0,266,39727.9939930556,2008-10-06,23:51:21
39.86818,116.396858,0,200,39727.9946296296,2008-10-06,23:52:16
39.866261,116.384228,0,125,39727.9952777778,2008-10-06,23:53:12
39.864121,116.374793,0,98,39727.9959837963,2008-10-06,23:54:13
39.863854,116.367971,0,187,39728.0007523148,2008-10-07,00:01:05
39.866378,116.368195,0,148,39728.0018981481,2008-10-07,00:02:44
39.867626,116.368216,0,135,39728.0044097222,2008-10-07,00:06:21
39.867648,116.368211,0,131,39728.0050462963,2008-10-07,00:07:16
39.867641,116.36821,0,131,39728.0056944444,2008-10-07,00:08:12
39.870371,116.368203,0,125,39728.0072569444,2008-10-07,00:10:27
39.874991,116.368369,0,187,39728.0079050926,2008-10-07,00:11:23
39.876726,116.368485,0,433,39728.0085416667,2008-10-07,00:12:18
39.879958,116.368583,0,269,39728.0091898148,2008-10-07,00:13:14
39.880881,116.368534,0,318,39728.0105092593,2008-10-07,00:15:08
39.881533,116.368533,0,226,39728.0117361111,2008-10-07,00:16:54
39.885054,116.368395,0,256,39728.0130324074,2008-10-07,00:18:46
39.886601,116.368486,0,217,39728.0142476852,2008-10-07,00:20:31
39.890761,116.368408,0,207,39728.0159953704,2008-10-07,00:23:02
39.891753,116.368593,0,272,39728.0166319444,2008-10-07,00:23:57
39.893464,116.368291,0,276,39728.0178935185,2008-10-07,00:25:46
39.894446,116.368423,0,217,39728.0191435185,2008-10-07,00:27:34
39.897178,116.368211,0,230,39728.0197916667,2008-10-07,00:28:30
39.942715,116.346376,0,440,39728.0375810185,2008-10-07,00:54:07
39.946863,116.3452,0,79,39728.0382291667,2008-10-07,00:55:03
39.955409,116.342323,0,69,39728.0388657407,2008-10-07,00:55:58
39.963874,116.33907,0,20,39728.0395138889,2008-10-07,00:56:54
39.977011,116.333673,0,335,39728.0420138889,2008-10-07,01:00:30
39.987119,116.331833,0,184,39728.042662037,2008-10-07,01:01:26
39.991441,116.331208,0,184,39728.0444444444,2008-10-07,01:04:00
39.991436,116.330311,0,207,39728.0450810185,2008-10-07,01:04:55
39.991351,116.329415,0,233,39728.0457291667,2008-10-07,01:05:51
39.991206,116.328511,0,289,39728.0463657407,2008-10-07,01:06:46
39.991123,116.327638,0,318,39728.0470138889,2008-10-07,01:07:42